{
  "$schema": "https://raw.githubusercontent.com/martinring/tmlanguage/master/tmlanguage.json",
  "injectionSelector": "L:source.ts -comment -string, L:source.tsx -comment -string",
  "name": "mongo-formula-ts-injection",
  "patterns": [{ "include": "#injection" }],
  "repository": {
    "injection": {
      "patterns": [
        {
          "begin": "(/\\*\\s*mongo-formula\\s*\\*/)\\s*(')",
          "beginCaptures": {
            "1": { "name": "comment.block.ts" },
            "2": { "name": "string.quoted.single.ts" }
          },
          "end": "'",
          "endCaptures": {
            "0": { "name": "string.quoted.single.ts" }
          },
          "contentName": "meta.embedded.block.mongo-formula",
          "patterns": [
            { "include": "source.ts#string-character-escape" },
            { "include": "source.mongo-formula#instring" }
          ]
        },
        {
          "begin": "(/\\*\\s*mongo-formula\\s*\\*/)\\s*(\")",
          "beginCaptures": {
            "1": { "name": "comment.block.ts" },
            "2": { "name": "string.quoted.double.ts" }
          },
          "end": "\"",
          "endCaptures": {
            "0": { "name": "string.quoted.double.ts" }
          },
          "contentName": "meta.embedded.block.mongo-formula",
          "patterns": [
            { "include": "source.ts#string-character-escape" },
            { "include": "source.mongo-formula#instring" }
          ]
        },
        {
          "begin": "(/\\*\\s*mongo-formula\\s*\\*/)\\s*(`)",
          "beginCaptures": {
            "1": { "name": "comment.block.ts" },
            "2": { "name": "string.template.ts" }
          },
          "end": "`",
          "endCaptures": {
            "0": { "name": "string.template.ts" }
          },
          "contentName": "meta.embedded.block.mongo-formula",
          "patterns": [
            { "include": "source.ts#template-substitution-element" },
            { "include": "source.ts#string-character-escape" },
            { "include": "source.mongo-formula#instring" }
          ]
        }
      ]
    }
  },
  "scopeName": "source.ts-injection.mongo-formula"
}
